…
processed <- mold(log(Sepal.Length) ~ Species + Petal.Width, iris_train)
```

The return value of `mold()` has three things. The `predictors`, the
`outcomes`, and a `preprocessor` that varies based on the interface you
are using. Notice that the default behavior for `mold()` is to *not* add
an intercept column. This is completely controlled by the `intercept`
argument and not by the formula itself.

``` r
processed$predictors
#> # A tibble: 100 x 4
#>    Speciessetosa Speciesversicolor Speciesvirginica Petal.Width
#>            <dbl>             <dbl>            <dbl>       <dbl>
#>  1             1                 0                0         0.2
#>  2             1                 0                0         0.2
#>  3             1                 0                0         0.2
#>  4             1                 0                0         0.2
#>  5             1                 0                0         0.2
#>  6             1                 0                0         0.4
#>  7             1                 0                0         0.3
#>  8             1                 0                0         0.2
#>  9             1                 0                0         0.2
#> 10             1                 0                0         0.1
#> # … with 90 more rows

processed$outcomes
#> # A tibble: 100 x 1
#>    `log(Sepal.Length)`
#>                  <dbl>
#>  1                1.63
#>  2                1.59
#>  3                1.55
#>  4                1.53
#>  5                1.61
#>  6                1.69
#>  7                1.53
#>  8                1.61
#>  9                1.48
#> 10                1.59
#> # … with 90 more rows
```
…
Notice how even though `y` is a vector, the `outcomes` slot of the
return value *always* holds a tibble. Because `y` is not a data frame /
matrix with existing column names, a default name of `".outcome"` is
used.

``` r
x <- iris_train[, c("Species", "Petal.Width")]
y <- iris_train$Sepal.Length

processed_xy <- mold(x, y, intercept = TRUE)

processed_xy$predictors
#> # A tibble: 100 x 3
#>    `(Intercept)` Species Petal.Width
#>            <int> <fct>         <dbl>
#>  1             1 setosa          0.2
#>  2             1 setosa          0.2
#>  3             1 setosa          0.2
#>  4             1 setosa          0.2
#>  5             1 setosa          0.2
#>  6             1 setosa          0.4
#>  7             1 setosa          0.3
#>  8             1 setosa          0.2
#>  9             1 setosa          0.2
#> 10             1 setosa          0.1
#> # … with 90 more rows

processed_xy$outcomes
#> # A tibble: 100 x 1
#>    .outcome
#>       <dbl>
#>  1      5.1
#>  2      4.9
#>  3      4.7
#>  4      4.6
#>  5      5  
#>  6      5.4
#>  7      4.6
#>  8      5  
#>  9      4.4
#> 10      4.9
#> # … with 90 more rows
```

Finally, there is an interface for `recipes`. It calls `recipes::prep()`
on the recipe for you.

``` r
suppressPackageStartupMessages(library(recipes))

rec <- recipe(Sepal.Length ~ Species + Petal.Width, iris_train) %>%
  step_log(Sepal.Length) %>%
  step_dummy(Species)

processed_rec <- mold(rec, iris_train)

processed_rec$predictors
#> # A tibble: 100 x 3
#>    Petal.Width Species_versicolor Species_virginica
#>          <dbl>              <dbl>             <dbl>
#>  1         0.2                  0                 0
#>  2         0.2                  0                 0
#>  3         0.2                  0                 0
#>  4         0.2                  0                 0
#>  5         0.2                  0                 0
#>  6         0.4                  0                 0
#>  7         0.3                  0                 0
#>  8         0.2                  0                 0
#>  9         0.2                  0                 0
#> 10         0.1                  0                 0
#> # … with 90 more rows
```
…
`forge()` always returns a list with two things. The first is a tibble
containing the preprocessed `predictors`. The second is optionally the
preprocessed `outcomes` if you are performing cross validation and used
a formula or recipes interface. Because we used the formula interface to
generate the `processed` object, we could set `outcomes = TRUE` above to
also return the processed outcome column.

``` r
processed_test$predictors
#> # A tibble: 50 x 4
#>    Speciessetosa Speciesversicolor Speciesvirginica Petal.Width
#>            <dbl>             <dbl>            <dbl>       <dbl>
#>  1             0                 0                1         2.5
#>  2             0                 0                1         1.9
#>  3             0                 0                1         2.1
#>  4             0                 0                1         1.8
#>  5             0                 0                1         2.2
#>  6             0                 0                1         2.1
#>  7             0                 0                1         1.7
#>  8             0                 0                1         1.8
#>  9             0                 0                1         1.8
#> 10             0                 0                1         2.5
#> # … with 40 more rows

processed_test$outcomes
#> # A tibble: 50 x 1
#>    `log(Sepal.Length)`
#>                  <dbl>
#>  1                1.84
#>  2                1.76
#>  3                1.96
#>  4                1.84
#>  5                1.87
#>  6                2.03
#>  7                1.59
#>  8                1.99
#>  9                1.90
#> 10                1.97
#> # … with 40 more rows
```
…
``` r
iris_test_bad <- iris
iris_test_bad$Species <- as.character(iris_test_bad$Species)
iris_test_bad$Species[1] <- "new_level"
iris_test_bad$Species  <- factor(iris_test_bad$Species)

levels(iris_test_bad$Species)
#> [1] "new_level"  "setosa"     "versicolor" "virginica"

processed_bad_test <- forge(processed$preprocessor, iris_test_bad)
#> Warning: The following factor levels are new for column, `Species`, and
#> have been coerced to `NA`: 'new_level'.

processed_bad_test$predictors
#> # A tibble: 150 x 4
#>    Speciessetosa Speciesversicolor Speciesvirginica Petal.Width
#>            <dbl>             <dbl>            <dbl>       <dbl>
#>  1            NA                NA               NA         0.2
#>  2             1                 0                0         0.2
#>  3             1                 0                0         0.2
#>  4             1                 0                0         0.2
#>  5             1                 0                0         0.2
#>  6             1                 0                0         0.4
#>  7             1                 0                0         0.3
#>  8             1                 0                0         0.2
#>  9             1                 0                0         0.2
#> 10             1                 0                0         0.1
#> # … with 140 more rows
```
