…
A formula blueprint is returned here, which knows about the predictors
and outcomes that were used at training time, and knows that you don’t
want to expand `species` into dummy variables by setting
`indicators = "none"`.

When it is time to [`predict()`](https://rdrr.io/r/stats/predict.html)
on new data, that data is passed on to
[`forge()`](https://hardhat.tidymodels.org/dev/reference/forge.md) along
with the `blueprint` we just created.

``` r
forge(penguin_test, formula_eng)
#> $predictors
#> # A tibble: 33 × 2
#>    bill_length_mm species  
#>             <dbl> <fct>    
#>  1           47.5 Chinstrap
#>  2           47.6 Chinstrap
#>  3           52   Chinstrap
#>  4           46.9 Chinstrap
#>  5           53.5 Chinstrap
#>  6           49   Chinstrap
#>  7           46.2 Chinstrap
#>  8           50.9 Chinstrap
#>  9           45.5 Chinstrap
#> 10           50.9 Chinstrap
#> # ℹ 23 more rows
…
Generally when generating predictions you only need to know about the
new predictors. However, when performing resampling you will need to
have the processed outcomes as well so you can compute cross validated
performance statistics and decide between multiple models, or choose
between hyperparameters.

You can easily request the outcomes as well with `outcomes = TRUE`. Just
like with the predictors, these get processed using the same steps as
done to the outcomes at fit time.

``` r
forge(penguin_test, formula_eng, outcomes = TRUE)
#> $predictors
#> # A tibble: 33 × 2
#>    bill_length_mm species  
#>             <dbl> <fct>    
#>  1           47.5 Chinstrap
#>  2           47.6 Chinstrap
#>  3           52   Chinstrap
#>  4           46.9 Chinstrap
#>  5           53.5 Chinstrap
#>  6           49   Chinstrap
#>  7           46.2 Chinstrap
#>  8           50.9 Chinstrap
#>  9           45.5 Chinstrap
#> 10           50.9 Chinstrap
#> # ℹ 23 more rows
#> 
#> $outcomes
#> # A tibble: 33 × 1
#>    `log(body_mass_g)`
#>                 <dbl>
#>  1               8.27
#>  2               8.26
#>  3               8.48
#>  4               7.90
#>  5               8.41
#>  6               8.28
#>  7               8.20
#>  8               8.17
#>  9               8.16
#> 10               8.21
#> # ℹ 23 more rows
…
### Lossless conversion

The error message above suggests that in some cases you *can*
automatically cast from one type to another, and in fact that is true!
Rather than being a double, what if `species` was just a character?

``` r
test_species_character <- penguin_test
test_species_character$species <- as.character(test_species_character$species)

forged_char <- forge(test_species_character, formula_eng)

forged_char$predictors
#> # A tibble: 33 × 2
#>    bill_length_mm species  
#>             <dbl> <fct>    
#>  1           47.5 Chinstrap
#>  2           47.6 Chinstrap
#>  3           52   Chinstrap
#>  4           46.9 Chinstrap
#>  5           53.5 Chinstrap
#>  6           49   Chinstrap
#>  7           46.2 Chinstrap
#>  8           50.9 Chinstrap
#>  9           45.5 Chinstrap
#> 10           50.9 Chinstrap
#> # ℹ 23 more rows
…
An example of a conversion that would be lossy is if the character
`species` column had a value that was *not* a level in the training
data.

``` r
test_species_lossy <- penguin_test
test_species_lossy$species <- as.character(test_species_lossy$species)
test_species_lossy$species[2] <- "im new!"

forged_lossy <- forge(test_species_lossy, formula_eng)
#> Warning: Novel level found in column "species": "im new!".
#> ℹ The level has been removed, and values have been coerced to <NA>.

forged_lossy$predictors
#> # A tibble: 33 × 2
#>    bill_length_mm species  
#>             <dbl> <fct>    
#>  1           47.5 Chinstrap
#>  2           47.6 NA       
#>  3           52   Chinstrap
#>  4           46.9 Chinstrap
#>  5           53.5 Chinstrap
#>  6           49   Chinstrap
#>  7           46.2 Chinstrap
#>  8           50.9 Chinstrap
#>  9           45.5 Chinstrap
#> 10           50.9 Chinstrap
#> # ℹ 23 more rows
```
…
``` r
library(recipes)

rec <- recipe(bill_length_mm ~ body_mass_g + species, penguin_train) |>
  step_dummy(species)

penguin_recipe <- mold(rec, penguin_train)

penguin_recipe$predictors
#> # A tibble: 300 × 3
#>    body_mass_g species_Chinstrap species_Gentoo
#>          <int>             <dbl>          <dbl>
#>  1        3750                 0              0
#>  2        3800                 0              0
#>  3        3250                 0              0
#>  4        3450                 0              0
#>  5        3650                 0              0
#>  6        3625                 0              0
#>  7        4675                 0              0
#>  8        3200                 0              0
#>  9        3800                 0              0
#> 10        4400                 0              0
#> # ℹ 290 more rows
```
…
When we
[`forge()`](https://hardhat.tidymodels.org/dev/reference/forge.md), we
can request `outcomes` to have the predictors and outcomes separated
like with the formula method.

``` r
forge(penguin_test, recipe_eng, outcomes = TRUE)
#> $predictors
#> # A tibble: 33 × 3
#>    body_mass_g species_Chinstrap species_Gentoo
#>          <int>             <dbl>          <dbl>
#>  1        3900                 1              0
#>  2        3850                 1              0
#>  3        4800                 1              0
#>  4        2700                 1              0
#>  5        4500                 1              0
#>  6        3950                 1              0
#>  7        3650                 1              0
#>  8        3550                 1              0
#>  9        3500                 1              0
#> 10        3675                 1              0
#> # ℹ 23 more rows
#> 
#> $outcomes
#> # A tibble: 33 × 1
#>    bill_length_mm
#>             <dbl>
#>  1           47.5
#>  2           47.6
#>  3           52  
#>  4           46.9
#>  5           53.5
#>  6           49  
#>  7           46.2
#>  8           50.9
#>  9           45.5
#> 10           50.9
#> # ℹ 23 more rows
…
``` r
rec3 <- recipe(bill_length_mm ~ body_mass_g + species, penguin_train) |>
  step_dummy(species) |>
  step_center(bill_length_mm, skip = TRUE)

penguin_recipe3 <- mold(rec3, penguin_train)

recipe_eng_skip_outcome <- penguin_recipe3$blueprint

forge(penguin_test_no_outcome, recipe_eng_skip_outcome)
#> $predictors
#> # A tibble: 33 × 3
#>    body_mass_g species_Chinstrap species_Gentoo
#>          <int>             <dbl>          <dbl>
#>  1        3900                 1              0
#>  2        3850                 1              0
#>  3        4800                 1              0
#>  4        2700                 1              0
#>  5        4500                 1              0
#>  6        3950                 1              0
#>  7        3650                 1              0
#>  8        3550                 1              0
#>  9        3500                 1              0
#> 10        3675                 1              0
#> # ℹ 23 more rows
…
- If you know you need to do resampling, you will likely have access to
  the outcomes during the resampling step so you can cross-validate the
  performance. In this case, you can’t set `skip = TRUE` because then
  the outcomes won’t be processed, but since you have access to them,
  you shouldn’t need to.

For example, if we used `penguin_test` with the above recipe (which has
the outcome), `bill_length_mm` wouldn’t get centered when
[`forge()`](https://hardhat.tidymodels.org/dev/reference/forge.md) is
called. But we probably would not have skipped that step if we knew that
our test data would have the outcome.

``` r
forge(penguin_test, recipe_eng_skip_outcome, outcomes = TRUE)$outcomes
#> # A tibble: 33 × 1
#>    bill_length_mm
#>             <dbl>
#>  1           47.5
#>  2           47.6
#>  3           52  
#>  4           46.9
#>  5           53.5
#>  6           49  
#>  7           46.2
#>  8           50.9
#>  9           45.5
#> 10           50.9
#> # ℹ 23 more rows
…
