Forging data for predictions • hardhat
…
A formula blueprint is returned here, which knows about the predictors and outcomes that were used at training time, and knows that you don’t want to expand Species into dummy variables by setting indicators = FALSE.

When it is time to predict() on new data, that data is passed on to forge() along with the blueprint we just created.

forge(iris_test, formula_eng)
#> $predictors
#> # A tibble: 50 x 2
#>    Petal.Width Species  
#>          <dbl> <fct>    
#>  1         2.5 virginica
#>  2         1.9 virginica
#>  3         2.1 virginica
#>  4         1.8 virginica
#>  5         2.2 virginica
#>  6         2.1 virginica
#>  7         1.7 virginica
#>  8         1.8 virginica
#>  9         1.8 virginica
#> 10         2.5 virginica
#> # … with 40 more rows
…
predictors holds a tibble of the predictors.

outcomes is returned as NULL by default, because most predict() methods assume you only have access to the new predictors. Alternatively, as you will read in a moment, this can contain a tibble of the new outcomes.

extras varies per blueprint, but is a catch-all slot to hold the same kind of extra objects that were returned by the blueprint when mold() was called.

Outcomes

Generally when generating predictions you only need to know about the new predictors. However, when performing resampling you will need to have the processed outcomes as well so you can compute cross validated performance statistics and decide between multiple models, or choose between hyperparameters.

You can easily request the outcomes as well with outcomes = TRUE. Just like with the predictors, these get processed using the same steps as done to the outcomes at fit time.

forge(iris_test, formula_eng, outcomes = TRUE)
#> $predictors
#> # A tibble: 50 x 2
#>    Petal.Width Species  
#>          <dbl> <fct>    
#>  1         2.5 virginica
#>  2         1.9 virginica
#>  3         2.1 virginica
#>  4         1.8 virginica
#>  5         2.2 virginica
#>  6         2.1 virginica
#>  7         1.7 virginica
#>  8         1.8 virginica
#>  9         1.8 virginica
#> 10         2.5 virginica
#> # … with 40 more rows
#> 
#> $outcomes
#> # A tibble: 50 x 1
#>    `log(Sepal.Length)`
#>                  <dbl>
#>  1                1.84
#>  2                1.76
#>  3                1.96
#>  4                1.84
#>  5                1.87
#>  6                2.03
#>  7                1.59
#>  8                1.99
#>  9                1.90
#> 10                1.97
#> # … with 40 more rows
…
An error is thrown, indicating that a double can’t be cast to a factor.

Lossless conversion

The error message above suggests that in some cases you can automatically cast from one type to another, and in fact that is true! Rather than being a double, what if Species was just a character?

test_species_character <- iris_test
test_species_character$Species <- as.character(test_species_character$Species)

forged_char <- forge(test_species_character, formula_eng)

forged_char$predictors
#> # A tibble: 50 x 2
#>    Petal.Width Species  
#>          <dbl> <fct>    
#>  1         2.5 virginica
#>  2         1.9 virginica
#>  3         2.1 virginica
#>  4         1.8 virginica
#>  5         2.2 virginica
#>  6         2.1 virginica
#>  7         1.7 virginica
#>  8         1.8 virginica
#>  9         1.8 virginica
#> 10         2.5 virginica
#> # … with 40 more rows
…
Interesting, so in this case we can actually convert to a factor, and the class and even the levels are all restored. The key here is that this was a lossless conversion. We lost no information when converting the character Species to a factor because the unique character values were a subset of the original levels.

An example of a conversion that would be lossy is if the character Species column had a value that was not a level in the training data.

test_species_lossy <- iris_test
test_species_lossy$Species <- as.character(test_species_lossy$Species)
test_species_lossy$Species[2] <- "im new!"

forged_lossy <- forge(test_species_lossy, formula_eng)
#> Warning: Novel levels found in column 'Species': 'im new!'. The levels have been
#> removed, and values have been coerced to 'NA'.

forged_lossy$predictors
#> # A tibble: 50 x 2
#>    Petal.Width Species  
#>          <dbl> <fct>    
#>  1         2.5 virginica
#>  2         1.9 <NA>     
#>  3         2.1 virginica
#>  4         1.8 virginica
#>  5         2.2 virginica
#>  6         2.1 virginica
#>  7         1.7 virginica
#>  8         1.8 virginica
#>  9         1.8 virginica
#> 10         2.5 virginica
#> # … with 40 more rows
…
rec <- recipe(Sepal.Width ~ Sepal.Length + Species, iris_train) %>%
  step_dummy(Species)

iris_recipe <- mold(rec, iris_train)

iris_recipe$predictors
#> # A tibble: 100 x 3
#>    Sepal.Length Species_versicolor Species_virginica
#>           <dbl>              <dbl>             <dbl>
#>  1          5.1                  0                 0
#>  2          4.9                  0                 0
#>  3          4.7                  0                 0
#>  4          4.6                  0                 0
#>  5          5                    0                 0
#>  6          5.4                  0                 0
#>  7          4.6                  0                 0
#>  8          5                    0                 0
#>  9          4.4                  0                 0
#> 10          4.9                  0                 0
#> # … with 90 more rows
…
recipe_eng <- iris_recipe$blueprint

recipe_eng
#> Recipe blueprint: 
#>  
#> # Predictors: 2 
#>   # Outcomes: 1 
#>    Intercept: FALSE 
#> Novel Levels: FALSE

When we forge(), we can request outcomes to have the predictors and outcomes separated like with the formula method.

forge(iris_test, recipe_eng, outcomes = TRUE)
#> $predictors
#> # A tibble: 50 x 3
#>    Sepal.Length Species_versicolor Species_virginica
#>           <dbl>              <dbl>             <dbl>
#>  1          6.3                  0                 1
#>  2          5.8                  0                 1
#>  3          7.1                  0                 1
#>  4          6.3                  0                 1
#>  5          6.5                  0                 1
#>  6          7.6                  0                 1
#>  7          4.9                  0                 1
#>  8          7.3                  0                 1
#>  9          6.7                  0                 1
#> 10          7.2                  0                 1
#> # … with 40 more rows
#> 
#> $outcomes
#> # A tibble: 50 x 1
#>    Sepal.Width
#>          <dbl>
#>  1         3.3
#>  2         2.7
#>  3         3  
#>  4         2.9
#>  5         3  
#>  6         3  
#>  7         2.5
#>  8         2.9
#>  9         2.5
#> 10         3.6
#> # … with 40 more rows
…
The way around this is to use the built-in recipe argument, skip, on the step containing the outcome. This skips the processing of that step at bake() time.

rec3 <- recipe(Sepal.Width ~ Sepal.Length + Species, iris_train) %>%
  step_dummy(Species) %>%
  step_center(Sepal.Width, skip = TRUE)

iris_recipe3 <- mold(rec3, iris_train)

recipe_eng_skip_outcome <- iris_recipe3$blueprint

forge(iris_test_no_outcome, recipe_eng_skip_outcome)
#> $predictors
#> # A tibble: 50 x 3
#>    Sepal.Length Species_versicolor Species_virginica
#>           <dbl>              <dbl>             <dbl>
#>  1          6.3                  0                 1
#>  2          5.8                  0                 1
#>  3          7.1                  0                 1
#>  4          6.3                  0                 1
#>  5          6.5                  0                 1
#>  6          7.6                  0                 1
#>  7          4.9                  0                 1
#>  8          7.3                  0                 1
#>  9          6.7                  0                 1
#> 10          7.2                  0                 1
#> # … with 40 more rows
…
There is a tradeoff here that you need to be aware of.

If you are just interested in generating predictions on completely new data, you can safely use skip = TRUE because you will almost never have access to the corresponding true outcomes to preprocess and compare against.

If you know you need to do resampling, you will likely have access to the outcomes during the resampling step so you can cross-validate the performance. In this case, you can’t set skip = TRUE because then the outcomes won’t be processed, but since you have access to them, you shouldn’t need to.

For example, if we used iris_test with the above recipe (which has the outcome), Sepal.Width wouldn’t get centered when forge() is called. But we probably would not have skipped that step if we knew that our test data would have the outcome.

forge(iris_test, recipe_eng_skip_outcome, outcomes = TRUE)$outcomes
#> # A tibble: 50 x 1
#>    Sepal.Width
#>          <dbl>
#>  1         3.3
#>  2         2.7
#>  3         3  
#>  4         2.9
#>  5         3  
#>  6         3  
#>  7         2.5
#>  8         2.9
#>  9         2.5
#> 10         3.6
#> # … with 40 more rows
…
