Creating Modeling Packages With hardhat • hardhat
…
  out <- spruce_numeric(pred)
  
  out
}

To test it, we will have to run a model and call forge() on the output manually. The higher level user facing function will do this automatically.

model <- simple_lm(bill_length_mm ~ body_mass_g + species, penguins)

predictors <- forge(penguins, model$blueprint)$predictors
predictors <- as.matrix(predictors)

predict_simple_lm_numeric(model, predictors)
#> # A tibble: 333 x 1
#>    .pred
#>    <dbl>
#>  1  39.0
#>  2  39.2
#>  3  37.1
#>  4  37.9
#>  5  38.6
#>  6  38.5
#>  7  42.5
#>  8  36.9
#>  9  39.2
#> 10  41.4
#> # … with 323 more rows
…
  switch(
    type,
    numeric = predict_simple_lm_numeric(object, predictors)
  )
}

Let’s test:

model <- simple_lm(bill_length_mm ~ body_mass_g + species, penguins)

# Pass in the data frame
predictors <- forge(penguins, model$blueprint)$predictors

predict_simple_lm_bridge("numeric", model, predictors)
#> # A tibble: 333 x 1
#>    .pred
#>    <dbl>
#>  1  39.0
#>  2  39.2
#>  3  37.1
#>  4  37.9
#>  5  38.6
#>  6  38.5
#>  7  42.5
#>  8  36.9
#>  9  39.2
#> 10  41.4
#> # … with 323 more rows
…
  out <- predict_simple_lm_bridge(type, object, processed$predictors)
  
  validate_prediction_size(out, new_data)
  
  out
}

Final Testing

Finally, we can test out our top level modeling function along with its corresponding predict() method.

model <- simple_lm(bill_length_mm ~ log(body_mass_g) + species, penguins)

predict(model, penguins)
#> # A tibble: 333 x 1
#>    .pred
#>    <dbl>
#>  1  39.1
#>  2  39.3
#>  3  36.9
#>  4  37.9
#>  5  38.7
#>  6  38.6
#>  7  42.5
#>  8  36.7
#>  9  39.3
#> 10  41.5
#> # … with 323 more rows
…
# `new_data` isn't a data frame
predict(model, penguins$species)
#> Error: The class of `new_data`, 'factor', is not recognized.

# Missing a required column
predict(model, subset(penguins, select = -body_mass_g))
#> Error: The following required columns are missing: 'body_mass_g'.

# In this case, 'species' is a character, 
# but can be losslessy converted to a factor.
# That happens for you automatically and silently.
penguins_chr_species <- transform(penguins, species = as.character(species))

predict(model, penguins_chr_species)
#> # A tibble: 333 x 1
#>    .pred
#>    <dbl>
#>  1  39.1
#>  2  39.3
#>  3  36.9
#>  4  37.9
#>  5  38.7
#>  6  38.6
#>  7  42.5
#>  8  36.7
#>  9  39.3
#> 10  41.5
#> # … with 323 more rows

# Slightly different from above. Here, 'species' is a character, 
# AND has an extra unexpected factor level. It is 
# removed with a warning, but you still get a factor 
# with the correct levels
penguins_chr_bad_species <- penguins_chr_species
penguins_chr_bad_species$species[1] <- "new_level"

predict(model, penguins_chr_bad_species)
#> Warning: Novel levels found in column 'species': 'new_level'. The levels have
#> been removed, and values have been coerced to 'NA'.
#> # A tibble: 333 x 1
#>    .pred
#>    <dbl>
#>  1  NA  
#>  2  39.3
#>  3  36.9
#>  4  37.9
#>  5  38.7
#>  6  38.6
#>  7  42.5
#>  8  36.7
#>  9  39.3
#> 10  41.5
#> # … with 323 more rows
…
