Default formula blueprint — default_formula_blueprint • hardhat
…
# ---------------------------------------------------------------------------
# Formula Example

# Call mold() with the training data
processed <- mold(
  log(Sepal.Width) ~ Sepal.Length + Species,
  train,
  blueprint = default_formula_blueprint(intercept = TRUE)
)

# Then, call forge() with the blueprint and the test data
# to have it preprocess the test data in the same way
forge(test, processed$blueprint)
#> $predictors
#> # A tibble: 50 x 4
#>    `(Intercept)` Sepal.Length Speciesversicolor Speciesvirginica
#>            <dbl>        <dbl>             <dbl>            <dbl>
#>  1             1          6.3                 0                1
#>  2             1          5.8                 0                1
#>  3             1          7.1                 0                1
#>  4             1          6.3                 0                1
#>  5             1          6.5                 0                1
#>  6             1          7.6                 0                1
#>  7             1          4.9                 0                1
#>  8             1          7.3                 0                1
#>  9             1          6.7                 0                1
#> 10             1          7.2                 0                1
#> # … with 40 more rows
#> 
#> $outcomes
#> NULL
#> 
#> $extras
#> $extras$offset
#> NULL
#> 
#> 

# Use `outcomes = TRUE` to also extract the preprocessed outcome
forge(test, processed$blueprint, outcomes = TRUE)
#> $predictors
#> # A tibble: 50 x 4
#>    `(Intercept)` Sepal.Length Speciesversicolor Speciesvirginica
#>            <dbl>        <dbl>             <dbl>            <dbl>
#>  1             1          6.3                 0                1
#>  2             1          5.8                 0                1
#>  3             1          7.1                 0                1
#>  4             1          6.3                 0                1
#>  5             1          6.5                 0                1
#>  6             1          7.6                 0                1
#>  7             1          4.9                 0                1
#>  8             1          7.3                 0                1
#>  9             1          6.7                 0                1
#> 10             1          7.2                 0                1
#> # … with 40 more rows
#> 
#> $outcomes
#> # A tibble: 50 x 1
#>    `log(Sepal.Width)`
#>                 <dbl>
#>  1              1.19 
#>  2              0.993
#>  3              1.10 
#>  4              1.06 
#>  5              1.10 
#>  6              1.10 
#>  7              0.916
#>  8              1.06 
#>  9              0.916
#> 10              1.28 
#> # … with 40 more rows
…
# ---------------------------------------------------------------------------
# Factors without an intercept

# No intercept is added by default
processed <- mold(Sepal.Width ~ Species, train)

# So factor columns are completely expanded
# into all `K` columns (the number of levels)
processed$predictors
#> # A tibble: 100 x 3
#>    Speciessetosa Speciesversicolor Speciesvirginica
#>            <dbl>             <dbl>            <dbl>
#>  1             1                 0                0
#>  2             1                 0                0
#>  3             1                 0                0
#>  4             1                 0                0
#>  5             1                 0                0
#>  6             1                 0                0
#>  7             1                 0                0
#>  8             1                 0                0
#>  9             1                 0                0
#> 10             1                 0                0
#> # … with 90 more rows
…
blueprint_no_indicators <- default_formula_blueprint(indicators = FALSE)

processed <- mold(
  ~ Species + Sepal.Width:Sepal.Length,
  train,
  blueprint = blueprint_no_indicators
)

processed$predictors
#> # A tibble: 100 x 2
#>    `Sepal.Width:Sepal.Length` Species
#>                         <dbl> <fct>  
#>  1                       17.8 setosa 
#>  2                       14.7 setosa 
#>  3                       15.0 setosa 
#>  4                       14.3 setosa 
#>  5                       18   setosa 
#>  6                       21.1 setosa 
#>  7                       15.6 setosa 
#>  8                       17   setosa 
#>  9                       12.8 setosa 
#> 10                       15.2 setosa 
#> # … with 90 more rows
…
# ---------------------------------------------------------------------------
# Multivariate outcomes

# Multivariate formulas can be specified easily
processed <- mold(Sepal.Width + log(Sepal.Length) ~ Species, train)
processed$outcomes
#> # A tibble: 100 x 2
#>    Sepal.Width `log(Sepal.Length)`
#>          <dbl>               <dbl>
#>  1         3.5                1.63
#>  2         3                  1.59
#>  3         3.2                1.55
#>  4         3.1                1.53
#>  5         3.6                1.61
#>  6         3.9                1.69
#>  7         3.4                1.53
#>  8         3.4                1.61
#>  9         2.9                1.48
#> 10         3.1                1.59
#> # … with 90 more rows

# Inline functions on the LHS are run, but any matrix
# output is flattened (like what happens in `model.matrix()`)
# (essentially this means you don't wind up with columns
# in the tibble that are matrices)
processed <- mold(poly(Sepal.Length, degree = 2) ~ Species, train)
processed$outcomes
#> # A tibble: 100 x 2
#>    `poly(Sepal.Length, degree = 2).1` `poly(Sepal.Length, degree = 2).2`
#>                                 <dbl>                              <dbl>
#>  1                            -0.0581                            -0.0377
#>  2                            -0.0894                             0.0147
#>  3                            -0.121                              0.0846
#>  4                            -0.136                              0.126 
#>  5                            -0.0738                            -0.0137
#>  6                            -0.0111                            -0.0837
#>  7                            -0.136                              0.126 
#>  8                            -0.0738                            -0.0137
#>  9                            -0.168                              0.222 
#> 10                            -0.0894                             0.0147
#> # … with 90 more rows

# TRUE
ncol(processed$outcomes) == 2
#> [1] TRUE

# Multivariate formulas specified in mold()
# carry over into forge()
forge(test, processed$blueprint, outcomes = TRUE)
#> $predictors
#> # A tibble: 50 x 3
#>    Speciessetosa Speciesversicolor Speciesvirginica
#>            <dbl>             <dbl>            <dbl>
#>  1             0                 0                1
#>  2             0                 0                1
#>  3             0                 0                1
#>  4             0                 0                1
#>  5             0                 0                1
#>  6             0                 0                1
#>  7             0                 0                1
#>  8             0                 0                1
#>  9             0                 0                1
#> 10             0                 0                1
#> # … with 40 more rows
#> 
#> $outcomes
#> # A tibble: 50 x 2
#>    `poly(Sepal.Length, degree = 2).1` `poly(Sepal.Length, degree = 2).2`
#>                                 <dbl>                              <dbl>
#>  1                             0.130                              0.0137
#>  2                             0.0515                            -0.0839
#>  3                             0.255                              0.397 
#>  4                             0.130                              0.0137
#>  5                             0.161                              0.0833
#>  6                             0.333                              0.777 
#>  7                            -0.0894                             0.0147
#>  8                             0.286                              0.536 
#>  9                             0.192                              0.170 
#> 10                             0.271                              0.464 
#> # … with 40 more rows
…
# ---------------------------------------------------------------------------
# Offsets

# Offsets are handled specially in base R, so they deserve special
# treatment here as well. You can add offsets using the inline function
# offset()
processed <- mold(Sepal.Width ~ offset(Sepal.Length) + Species, train)

processed$extras$offset
#> # A tibble: 100 x 1
#>    .offset
#>      <dbl>
#>  1     5.1
#>  2     4.9
#>  3     4.7
#>  4     4.6
#>  5     5  
#>  6     5.4
#>  7     4.6
#>  8     5  
#>  9     4.4
#> 10     4.9
#> # … with 90 more rows
…
# Forging test data will also require
# and include the offset
forge(test, processed$blueprint)
#> $predictors
#> # A tibble: 50 x 0
#> 
#> $outcomes
#> NULL
#> 
#> $extras
#> $extras$offset
#> # A tibble: 50 x 1
#>    .offset
#>      <dbl>
#>  1     8.8
#>  2     7.7
#>  3     9.2
#>  4     8.1
#>  5     8.7
#>  6     9.7
#>  7     6.6
#>  8     9.1
#>  9     8.5
#> 10     9.7
#> # … with 40 more rows
#> 
#> 

# ---------------------------------------------------------------------------
# Intercept only

# Because `1` and `0` are intercept modifying terms, they are
# not allowed in the formula and are controlled by the
# `intercept` argument of the blueprint. To use an intercept
# only formula, you should supply `NULL` on the RHS of the formula.
mold(~ NULL, train, blueprint = default_formula_blueprint(intercept = TRUE))
#> $predictors
#> # A tibble: 100 x 1
#>    `(Intercept)`
#>            <dbl>
#>  1             1
#>  2             1
#>  3             1
#>  4             1
#>  5             1
#>  6             1
#>  7             1
#>  8             1
#>  9             1
#> 10             1
#> # … with 90 more rows
…
