Default recipe engine — default_recipe_engine • hardhat
…
train <- iris[1:100,]
test <- iris[101:150,]

# ---------------------------------------------------------------------------
# Recipes example

# Create a recipe that logs a predictor
rec <- recipe(Species ~ Sepal.Length + Sepal.Width, train) %>%
   step_log(Sepal.Length)

processed <- mold(rec, train)

# Sepal.Length has been logged
processed$predictors
#> # A tibble: 100 x 2
#>    Sepal.Length Sepal.Width
#>           <dbl>       <dbl>
#>  1         1.63         3.5
#>  2         1.59         3  
#>  3         1.55         3.2
#>  4         1.53         3.1
#>  5         1.61         3.6
#>  6         1.69         3.9
#>  7         1.53         3.4
#>  8         1.61         3.4
#>  9         1.48         2.9
#> 10         1.59         3.1
#> # … with 90 more rows

processed$outcomes
#> # A tibble: 100 x 1
#>    Species
#>    <fct>  
#>  1 setosa 
#>  2 setosa 
#>  3 setosa 
#>  4 setosa 
#>  5 setosa 
#>  6 setosa 
#>  7 setosa 
#>  8 setosa 
#>  9 setosa 
#> 10 setosa 
#> # … with 90 more rows
…
# Call forge() with the engine and the test data
# to have it preprocess the test data in the same way
forge(test, processed$engine)
#> $predictors
#> # A tibble: 50 x 2
#>    Sepal.Length Sepal.Width
#>           <dbl>       <dbl>
#>  1         1.84         3.3
#>  2         1.76         2.7
#>  3         1.96         3  
#>  4         1.84         2.9
#>  5         1.87         3  
#>  6         2.03         3  
#>  7         1.59         2.5
#>  8         1.99         2.9
#>  9         1.90         2.5
#> 10         1.97         3.6
#> # … with 40 more rows
#> 
#> $outcomes
#> NULL
#> 
#> $extras
#> NULL
#> 

# Use `outcomes = TRUE` to also extract the preprocessed outcome!
# This logged the Sepal.Length column of `new_data`
forge(test, processed$engine, outcomes = TRUE)
#> $predictors
#> # A tibble: 50 x 2
#>    Sepal.Length Sepal.Width
#>           <dbl>       <dbl>
#>  1         1.84         3.3
#>  2         1.76         2.7
#>  3         1.96         3  
#>  4         1.84         2.9
#>  5         1.87         3  
#>  6         2.03         3  
#>  7         1.59         2.5
#>  8         1.99         2.9
#>  9         1.90         2.5
#> 10         1.97         3.6
#> # … with 40 more rows
#> 
#> $outcomes
#> # A tibble: 50 x 1
#>    Species  
#>    <fct>    
#>  1 virginica
#>  2 virginica
#>  3 virginica
#>  4 virginica
#>  5 virginica
#>  6 virginica
#>  7 virginica
#>  8 virginica
#>  9 virginica
#> 10 virginica
#> # … with 40 more rows
#> 
#> $extras
#> NULL
#> 

# ---------------------------------------------------------------------------
# With an intercept

# You can add an intercept with `intercept = TRUE`
processed <- mold(rec, train, default_recipe_engine(intercept = TRUE))

processed$predictors
#> # A tibble: 100 x 3
#>    `(Intercept)` Sepal.Length Sepal.Width
#>            <int>        <dbl>       <dbl>
#>  1             1         1.63         3.5
#>  2             1         1.59         3  
#>  3             1         1.55         3.2
#>  4             1         1.53         3.1
#>  5             1         1.61         3.6
#>  6             1         1.69         3.9
#>  7             1         1.53         3.4
#>  8             1         1.61         3.4
#>  9             1         1.48         2.9
#> 10             1         1.59         3.1
#> # … with 90 more rows

# But you also could have used a recipe step
rec2 <- step_intercept(rec)

mold(rec2, iris)$predictors
#> # A tibble: 150 x 3
#>    intercept Sepal.Length Sepal.Width
#>        <dbl>        <dbl>       <dbl>
#>  1         1         1.63         3.5
#>  2         1         1.59         3  
#>  3         1         1.55         3.2
#>  4         1         1.53         3.1
#>  5         1         1.61         3.6
#>  6         1         1.69         3.9
#>  7         1         1.53         3.4
#>  8         1         1.61         3.4
#>  9         1         1.48         2.9
#> 10         1         1.59         3.1
#> # … with 140 more rows
…
