Recover original factor levels — enforce_new_data_level_recovery • hardhat
…
iris <- tibble::as_tibble(iris)
train <- iris[1:100,]
test <- iris[101:150,]

# ---------------------------------------------------------------------------
# Use with get_levels()

# If rolling your package, get_levels() can be useful alongside this check
original_levels <- get_levels(train)

# All good!
enforce_new_data_level_recovery(test, original_levels)
#> # A tibble: 50 x 5
#>    Sepal.Length Sepal.Width Petal.Length Petal.Width Species  
#>           <dbl>       <dbl>        <dbl>       <dbl> <fct>    
#>  1          6.3         3.3          6           2.5 virginica
#>  2          5.8         2.7          5.1         1.9 virginica
#>  3          7.1         3            5.9         2.1 virginica
#>  4          6.3         2.9          5.6         1.8 virginica
#>  5          6.5         3            5.8         2.2 virginica
#>  6          7.6         3            6.6         2.1 virginica
#>  7          4.9         2.5          4.5         1.7 virginica
#>  8          7.3         2.9          6.3         1.8 virginica
#>  9          6.7         2.5          5.8         1.8 virginica
#> 10          7.2         3.6          6.1         2.5 virginica
#> # … with 40 more rows

# ---------------------------------------------------------------------------
# Internally, forge() uses this check like so:

x <- mold(Sepal.Length ~ Species, train)

# No problems here!
enforce_new_data_level_recovery(test, x$engine$info$predictors$levels)
#> # A tibble: 50 x 5
#>    Sepal.Length Sepal.Width Petal.Length Petal.Width Species  
#>           <dbl>       <dbl>        <dbl>       <dbl> <fct>    
#>  1          6.3         3.3          6           2.5 virginica
#>  2          5.8         2.7          5.1         1.9 virginica
#>  3          7.1         3            5.9         2.1 virginica
#>  4          6.3         2.9          5.6         1.8 virginica
#>  5          6.5         3            5.8         2.2 virginica
#>  6          7.6         3            6.6         2.1 virginica
#>  7          4.9         2.5          4.5         1.7 virginica
#>  8          7.3         2.9          6.3         1.8 virginica
#>  9          6.7         2.5          5.8         1.8 virginica
#> 10          7.2         3.6          6.1         2.5 virginica
#> # … with 40 more rows

# Missing 2 levels
bad_test <- test
bad_test$Species <- droplevels(bad_test$Species)

# Restores the levels with a warning
enforce_new_data_level_recovery(bad_test, x$engine$info$predictors$levels)
#> Warning: The following original factor levels are missing for column, 'Species', and have been restored: 'setosa', 'versicolor'.
#> # A tibble: 50 x 5
#>    Sepal.Length Sepal.Width Petal.Length Petal.Width Species  
#>           <dbl>       <dbl>        <dbl>       <dbl> <fct>    
#>  1          6.3         3.3          6           2.5 virginica
#>  2          5.8         2.7          5.1         1.9 virginica
#>  3          7.1         3            5.9         2.1 virginica
#>  4          6.3         2.9          5.6         1.8 virginica
#>  5          6.5         3            5.8         2.2 virginica
#>  6          7.6         3            6.6         2.1 virginica
#>  7          4.9         2.5          4.5         1.7 virginica
#>  8          7.3         2.9          6.3         1.8 virginica
#>  9          6.7         2.5          5.8         1.8 virginica
#> 10          7.2         3.6          6.1         2.5 virginica
#> # … with 40 more rows
…
