Forge - XY Method — forge.default_preprocessor • hardhat
…
test_x <- test[, "Sepal.Length", drop = FALSE]
test_y <- test[, "Species", drop = FALSE]

# ---------------------------------------------------------------------------
# XY Example

# First, call mold() with the training data
processed <- mold(train_x, train_y)

# Then, call forge() with the preprocessor and the test data
# to have it preprocess the test data in the same way
forge(processed$preprocessor, test_x)
#> $predictors
#> # A tibble: 50 x 1
#>    Sepal.Length
#>           <dbl>
#>  1          6.3
#>  2          5.8
#>  3          7.1
#>  4          6.3
#>  5          6.5
#>  6          7.6
#>  7          4.9
#>  8          7.3
#>  9          6.7
#> 10          7.2
#> # … with 40 more rows
…
# ---------------------------------------------------------------------------
# Intercept

processed <- mold(train_x, train_y, intercept = TRUE)

forge(processed$preprocessor, test_x)
#> $predictors
#> # A tibble: 50 x 2
#>    `(Intercept)` Sepal.Length
#>            <int>        <dbl>
#>  1             1          6.3
#>  2             1          5.8
#>  3             1          7.1
#>  4             1          6.3
#>  5             1          6.5
#>  6             1          7.6
#>  7             1          4.9
#>  8             1          7.3
#>  9             1          6.7
#> 10             1          7.2
#> # … with 40 more rows
…
# ---------------------------------------------------------------------------
# XY Method and forge(outcomes = TRUE)

# You can request that the new outcome columns are preprocessed as well, but
# they have to be present in `new_data`!

processed <- mold(train_x, train_y)

# Can't do this!
# forge(processed$preprocessor, test_x, outcomes = TRUE)

# Need to use the full test set, including `y`
forge(processed$preprocessor, test, outcomes = TRUE)
#> $predictors
#> # A tibble: 50 x 1
#>    Sepal.Length
#>           <dbl>
#>  1          6.3
#>  2          5.8
#>  3          7.1
#>  4          6.3
#>  5          6.5
#>  6          7.6
#>  7          4.9
#>  8          7.3
#>  9          6.7
#> 10          7.2
#> # … with 40 more rows
#> 
#> $outcomes
#> # A tibble: 50 x 1
#>    Species  
#>    <fct>    
#>  1 virginica
#>  2 virginica
#>  3 virginica
#>  4 virginica
#>  5 virginica
#>  6 virginica
#>  7 virginica
#>  8 virginica
#>  9 virginica
#> 10 virginica
#> # … with 40 more rows
…
processed_vec <- mold(train_x, y_vec)

# This throws an informative error that tell you
# to include an `".outcome"` column in `new_data`.
# NOT RUN {
forge(processed_vec$preprocessor, iris, outcomes = TRUE)
# }
test2 <- test
test2$.outcome <- test2$Species
test2$Species <- NULL

# This works, and returns a tibble in the $outcomes slot
forge(processed_vec$preprocessor, test2, outcomes = TRUE)
#> $predictors
#> # A tibble: 50 x 1
#>    Sepal.Length
#>           <dbl>
#>  1          6.3
#>  2          5.8
#>  3          7.1
#>  4          6.3
#>  5          6.5
#>  6          7.6
#>  7          4.9
#>  8          7.3
#>  9          6.7
#> 10          7.2
#> # … with 40 more rows
#> 
#> $outcomes
#> # A tibble: 50 x 1
#>    .outcome 
#>    <fct>    
#>  1 virginica
#>  2 virginica
#>  3 virginica
#>  4 virginica
#>  5 virginica
#>  6 virginica
#>  7 virginica
#>  8 virginica
#>  9 virginica
#> 10 virginica
#> # … with 40 more rows
…
