Construct a model frame — model_frame • hardhat
…
It is important to always use the results of model_frame() with
model_matrix() rather than stats::model.matrix() because the tibble
in the result of model_frame() does not have a terms object attached.
If model.matrix(<terms>, <tibble>) is called directly, then a call to
model.frame() will be made automatically, which can give faulty results.

    Examples

# ---------------------------------------------------------------------------
# Example usage

framed <- model_frame(Species ~ Sepal.Width, iris)

framed$data
#> # A tibble: 150 × 2
#>    Species Sepal.Width
#>    <fct>         <dbl>
#>  1 setosa          3.5
#>  2 setosa          3  
#>  3 setosa          3.2
#>  4 setosa          3.1
#>  5 setosa          3.6
#>  6 setosa          3.9
#>  7 setosa          3.4
#>  8 setosa          3.4
#>  9 setosa          2.9
#> 10 setosa          3.1
#> # … with 140 more rows
…
