Mold - Formula Method — mold.formula • hardhat
…
    Examples

# ---------------------------------------------------------------------------
# Formula example

processed <- mold(Sepal.Width ~ Species, iris, intercept = TRUE)

processed$predictors
#> # A tibble: 150 x 3
#>    `(Intercept)` Speciesversicolor Speciesvirginica
#>            <dbl>             <dbl>            <dbl>
#>  1             1                 0                0
#>  2             1                 0                0
#>  3             1                 0                0
#>  4             1                 0                0
#>  5             1                 0                0
#>  6             1                 0                0
#>  7             1                 0                0
#>  8             1                 0                0
#>  9             1                 0                0
#> 10             1                 0                0
#> # … with 140 more rows

processed$outcomes
#> # A tibble: 150 x 1
#>    Sepal.Width
#>          <dbl>
#>  1         3.5
#>  2         3  
#>  3         3.2
#>  4         3.1
#>  5         3.6
#>  6         3.9
#>  7         3.4
#>  8         3.4
#>  9         2.9
#> 10         3.1
#> # … with 140 more rows

# ---------------------------------------------------------------------------
# Factors without an intercept

# No intercept is added
processed <- mold(Sepal.Width ~ Species, iris)

# So factor columns are completely expanded
# into all `K` columns (the number of levels)
processed$predictors
#> # A tibble: 150 x 3
#>    Speciessetosa Speciesversicolor Speciesvirginica
#>            <dbl>             <dbl>            <dbl>
#>  1             1                 0                0
#>  2             1                 0                0
#>  3             1                 0                0
#>  4             1                 0                0
#>  5             1                 0                0
#>  6             1                 0                0
#>  7             1                 0                0
#>  8             1                 0                0
#>  9             1                 0                0
#> 10             1                 0                0
#> # … with 140 more rows
…
# ---------------------------------------------------------------------------
# Dummy variables and interactions

# By default, factor columns are expanded
# And interactions are created, both by
# calling model.matrix(). Some models (like
# tree based models) can take factors directly
# but still might want to use the formula method.
# In those cases, set `indicators = FALSE` to not
# run model.matrix()

processed <- mold(Sepal.Width ~ Species, iris, indicators = FALSE)

processed$predictors
#> # A tibble: 150 x 1
#>    Species
#>    <fct>  
#>  1 setosa 
#>  2 setosa 
#>  3 setosa 
#>  4 setosa 
#>  5 setosa 
#>  6 setosa 
#>  7 setosa 
#>  8 setosa 
#>  9 setosa 
#> 10 setosa 
#> # … with 140 more rows

# No interactions are expanded when `indicators = FALSE`, but
# the terms specified in the interaction show up in the predictors
# tibble, with a warning

# NOT RUN {
mold(Sepal.Width ~ Sepal.Length:Species, iris, indicators = FALSE)
# }
# ---------------------------------------------------------------------------
# Multivariate outcomes

# Multivariate formulas can be specified easily
processed <- mold(Sepal.Width + log(Sepal.Length) ~ Species, iris)
processed$outcomes
#> # A tibble: 150 x 2
#>    Sepal.Width `log(Sepal.Length)`
#>          <dbl>               <dbl>
#>  1         3.5                1.63
#>  2         3                  1.59
#>  3         3.2                1.55
#>  4         3.1                1.53
#>  5         3.6                1.61
#>  6         3.9                1.69
#>  7         3.4                1.53
#>  8         3.4                1.61
#>  9         2.9                1.48
#> 10         3.1                1.59
#> # … with 140 more rows

# Inline functions on the LHS are run, but any matrix
# output is flattened (like what happens in `model.matrix()`)
# (essentially this means you don't wind up with columns
# in the tibble that are matrices)
processed <- mold(poly(Sepal.Length, degree = 2) ~ Species, iris)
processed$outcomes
#> # A tibble: 150 x 2
#>    `poly(Sepal.Length, degree = 2).1` `poly(Sepal.Length, degree = 2).2`
#>                                 <dbl>                              <dbl>
#>  1                            -0.0735                            0.00652
#>  2                            -0.0933                            0.0469 
#>  3                            -0.113                             0.0957 
#>  4                            -0.123                             0.123  
#>  5                            -0.0834                            0.0257 
#>  6                            -0.0439                           -0.0385 
#>  7                            -0.123                             0.123  
#>  8                            -0.0834                            0.0257 
#>  9                            -0.143                             0.184  
#> 10                            -0.0933                            0.0469 
#> # … with 140 more rows

# TRUE
ncol(processed$outcomes) == 2
#> [1] TRUE

# ---------------------------------------------------------------------------
# Offsets

# Offsets are handled specially in base R, so they deserve special
# treatment here as well. You can add offsets using the inline function
# offset()
processed <- mold(Sepal.Width ~ offset(Sepal.Length) + Species, iris)

processed$offset
#> # A tibble: 150 x 1
#>    .offset
#>      <dbl>
#>  1     5.1
#>  2     4.9
#>  3     4.7
#>  4     4.6
#>  5     5  
#>  6     5.4
#>  7     4.6
#>  8     5  
#>  9     4.4
#> 10     4.9
#> # … with 140 more rows
…
