Mold data for modeling — mold • hardhat
…
    Examples

# ---------------------------------------------------------------------------
# Multivariate outcomes

# Multivariate formulas can be specified easily
processed <- mold(Sepal.Width + log(Sepal.Length) ~ Species, iris)
processed$outcomes
#> # A tibble: 150 x 2
#>    Sepal.Width `log(Sepal.Length)`
#>          <dbl>               <dbl>
#>  1         3.5                1.63
#>  2         3                  1.59
#>  3         3.2                1.55
#>  4         3.1                1.53
#>  5         3.6                1.61
#>  6         3.9                1.69
#>  7         3.4                1.53
#>  8         3.4                1.61
#>  9         2.9                1.48
#> 10         3.1                1.59
#> # … with 140 more rows

# Inline functions on the LHS are run, but any matrix
# output is flattened (like what happens in `model.matrix()`)
# (essentially this means you don't wind up with columns
# in the tibble that are matrices)
processed <- mold(poly(Sepal.Length, degree = 2) ~ Species, iris)
processed$outcomes
#> # A tibble: 150 x 2
#>    `poly(Sepal.Length, degree = 2).1` `poly(Sepal.Length, degree = 2).2`
#>                                 <dbl>                              <dbl>
#>  1                            -0.0735                            0.00652
#>  2                            -0.0933                            0.0469 
#>  3                            -0.113                             0.0957 
#>  4                            -0.123                             0.123  
#>  5                            -0.0834                            0.0257 
#>  6                            -0.0439                           -0.0385 
#>  7                            -0.123                             0.123  
#>  8                            -0.0834                            0.0257 
#>  9                            -0.143                             0.184  
#> 10                            -0.0933                            0.0469 
#> # … with 140 more rows
…
