Mold - XY Method — mold.data.frame • hardhat
…
    Examples

# ---------------------------------------------------------------------------
# XY Example

x <- iris[, c("Sepal.Width", "Species"), drop = FALSE]
y <- iris[, "Sepal.Length", drop = FALSE]

processed <- mold(x, y)

# The predictors are returned as a tibble
processed$predictors
#> # A tibble: 150 x 2
#>    Sepal.Width Species
#>          <dbl> <fct>  
#>  1         3.5 setosa 
#>  2         3   setosa 
#>  3         3.2 setosa 
#>  4         3.1 setosa 
#>  5         3.6 setosa 
#>  6         3.9 setosa 
#>  7         3.4 setosa 
#>  8         3.4 setosa 
#>  9         2.9 setosa 
#> 10         3.1 setosa 
#> # … with 140 more rows

# So are the outcomes
processed$outcomes
#> # A tibble: 150 x 1
#>    Sepal.Length
#>           <dbl>
#>  1          5.1
#>  2          4.9
#>  3          4.7
#>  4          4.6
#>  5          5  
#>  6          5.4
#>  7          4.6
#>  8          5  
#>  9          4.4
#> 10          4.9
#> # … with 140 more rows
# A default preprocessor is also returned
# This contains all of the information required
# to preprocess new data at prediction time.
processed$preprocessor
#> Default Preprocessor: 
#>  
#> # Predictors: 2 
#>   # Outcomes: 1 
#>    Intercept: FALSE 

# The preprocessor should be stored in the model object
# and is later used by forge()
forge(processed$preprocessor, iris)
#> $predictors
#> # A tibble: 150 x 2
#>    Sepal.Width Species
#>          <dbl> <fct>  
#>  1         3.5 setosa 
#>  2         3   setosa 
#>  3         3.2 setosa 
#>  4         3.1 setosa 
#>  5         3.6 setosa 
#>  6         3.9 setosa 
#>  7         3.4 setosa 
#>  8         3.4 setosa 
#>  9         2.9 setosa 
#> 10         3.1 setosa 
#> # … with 140 more rows
…
# ---------------------------------------------------------------------------
# Y as a vector

# Often, `y` will be supplied as a vector to a model. `mold()` handles
# this by letting `standardize()` convert `y` to a tibble, adding the
# default column name, `".outcome"`.
y_vec <- y$Sepal.Length

mold(x, y_vec)$outcomes
#> # A tibble: 150 x 1
#>    .outcome
#>       <dbl>
#>  1      5.1
#>  2      4.9
#>  3      4.7
#>  4      4.6
#>  5      5  
#>  6      5.4
#>  7      4.6
#>  8      5  
#>  9      4.4
#> 10      4.9
#> # … with 140 more rows
…
