mold() according to a blueprint — run-mold • hardhat
…
    run_mold() methods return the object that is then immediately returned from
mold(). See the return value section of mold() to understand what the
structure of the return value should look like.

    Examples

bp <- default_xy_blueprint()

outcomes <- mtcars["mpg"]
predictors <- mtcars
predictors$mpg <- NULL

run_mold(bp, x = predictors, y = outcomes)
#> $predictors
#> # A tibble: 32 × 10
#>      cyl  disp    hp  drat    wt  qsec    vs    am  gear  carb
#>    <dbl> <dbl> <dbl> <dbl> <dbl> <dbl> <dbl> <dbl> <dbl> <dbl>
#>  1     6  160    110  3.9   2.62  16.5     0     1     4     4
#>  2     6  160    110  3.9   2.88  17.0     0     1     4     4
#>  3     4  108     93  3.85  2.32  18.6     1     1     4     1
#>  4     6  258    110  3.08  3.22  19.4     1     0     3     1
#>  5     8  360    175  3.15  3.44  17.0     0     0     3     2
#>  6     6  225    105  2.76  3.46  20.2     1     0     3     1
#>  7     8  360    245  3.21  3.57  15.8     0     0     3     4
#>  8     4  147.    62  3.69  3.19  20       1     0     4     2
#>  9     4  141.    95  3.92  3.15  22.9     1     0     4     2
#> 10     6  168.   123  3.92  3.44  18.3     1     0     4     4
#> # … with 22 more rows
#> 
#> $outcomes
#> # A tibble: 32 × 1
#>      mpg
#>    <dbl>
#>  1  21  
#>  2  21  
#>  3  22.8
#>  4  21.4
#>  5  18.7
#>  6  18.1
#>  7  14.3
#>  8  24.4
#>  9  22.8
#> 10  19.2
#> # … with 22 more rows
…
