😱 Scream. — scream • hardhat
…
train <- iris[1:100,]
test <- iris[101:150,]

# mold() is run at model fit time
# and a terms preprocessor is recorded
x <- mold(log(Sepal.Width) ~ Species, train)

# Pass that preprocessor to shrink(), along with new_data
# to get a tibble of required predictors back
test_shrunk <- shrink(x$preprocessor, test)

# Now pass that to scream() to perform validation checks
# Silence is key!
scream(x$preprocessor, test_shrunk)
#> # A tibble: 50 x 1
#>    Species  
#>    <fct>    
#>  1 virginica
#>  2 virginica
#>  3 virginica
#>  4 virginica
#>  5 virginica
#>  6 virginica
#>  7 virginica
#>  8 virginica
#>  9 virginica
#> 10 virginica
#> # … with 40 more rows

# If `outcomes = TRUE` is used with shrink(),
# it should also be used with scream()
test_outcome <- shrink(x$preprocessor, test, outcomes = TRUE)
scream(x$preprocessor, test_outcome, outcomes = TRUE)
#> # A tibble: 50 x 2
#>    Sepal.Width Species  
#>          <dbl> <fct>    
#>  1         3.3 virginica
#>  2         2.7 virginica
#>  3         3   virginica
#>  4         2.9 virginica
#>  5         3   virginica
#>  6         3   virginica
#>  7         2.5 virginica
#>  8         2.9 virginica
#>  9         2.5 virginica
#> 10         3.6 virginica
#> # … with 40 more rows
…
