…
test_x <- test["Sepal.Length"]
test_y <- test["Species"]

# ---------------------------------------------------------------------------
# XY Example

# First, call mold() with the training data
processed <- mold(train_x, train_y)

# Then, call forge() with the blueprint and the test data
# to have it preprocess the test data in the same way
forge(test_x, processed$blueprint)
#> $predictors
#> # A tibble: 50 × 1
#>    Sepal.Length
#>           <dbl>
#>  1          6.3
#>  2          5.8
#>  3          7.1
#>  4          6.3
#>  5          6.5
#>  6          7.6
#>  7          4.9
#>  8          7.3
#>  9          6.7
#> 10          7.2
#> # ℹ 40 more rows
…
# ---------------------------------------------------------------------------
# Intercept

processed <- mold(train_x, train_y, blueprint = default_xy_blueprint(intercept = TRUE))

forge(test_x, processed$blueprint)
#> $predictors
#> # A tibble: 50 × 2
#>    `(Intercept)` Sepal.Length
#>            <int>        <dbl>
#>  1             1          6.3
#>  2             1          5.8
#>  3             1          7.1
#>  4             1          6.3
#>  5             1          6.5
#>  6             1          7.6
#>  7             1          4.9
#>  8             1          7.3
#>  9             1          6.7
#> 10             1          7.2
#> # ℹ 40 more rows
…
# You can request that the new outcome columns are preprocessed as well, but
# they have to be present in `new_data`!

processed <- mold(train_x, train_y)

# Can't do this!
try(forge(test_x, processed$blueprint, outcomes = TRUE))
#> Error in forge(test_x, processed$blueprint, outcomes = TRUE) : 
#>   The required column "Species" is missing.

# Need to use the full test set, including `y`
forge(test, processed$blueprint, outcomes = TRUE)
#> $predictors
#> # A tibble: 50 × 1
#>    Sepal.Length
#>           <dbl>
#>  1          6.3
#>  2          5.8
#>  3          7.1
#>  4          6.3
#>  5          6.5
#>  6          7.6
#>  7          4.9
#>  8          7.3
#>  9          6.7
#> 10          7.2
#> # ℹ 40 more rows
#> 
#> $outcomes
#> # A tibble: 50 × 1
#>    Species  
#>    <fct>    
#>  1 virginica
#>  2 virginica
#>  3 virginica
#>  4 virginica
#>  5 virginica
#>  6 virginica
#>  7 virginica
#>  8 virginica
#>  9 virginica
#> 10 virginica
#> # ℹ 40 more rows
…
test2 <- test
test2$.outcome <- test2$Species
test2$Species <- NULL

# This works, and returns a tibble in the $outcomes slot
forge(test2, processed_vec$blueprint, outcomes = TRUE)
#> $predictors
#> # A tibble: 50 × 1
#>    Sepal.Length
#>           <dbl>
#>  1          6.3
#>  2          5.8
#>  3          7.1
#>  4          6.3
#>  5          6.5
#>  6          7.6
#>  7          4.9
#>  8          7.3
#>  9          6.7
#> 10          7.2
#> # ℹ 40 more rows
#> 
#> $outcomes
#> # A tibble: 50 × 1
#>    .outcome 
#>    <fct>    
#>  1 virginica
#>  2 virginica
#>  3 virginica
#>  4 virginica
#>  5 virginica
#>  6 virginica
#>  7 virginica
#>  8 virginica
#>  9 virginica
#> 10 virginica
#> # ℹ 40 more rows
…
