…
train <- iris[1:100, ]
test <- iris[101:150, ]

# Formula
processed <- mold(
  log(Sepal.Width) ~ Species,
  train,
  blueprint = default_formula_blueprint(indicators = "none")
)

forge(test, processed$blueprint, outcomes = TRUE)
#> $predictors
#> # A tibble: 50 × 1
#>    Species  
#>    <fct>    
#>  1 virginica
#>  2 virginica
#>  3 virginica
#>  4 virginica
#>  5 virginica
#>  6 virginica
#>  7 virginica
#>  8 virginica
#>  9 virginica
#> 10 virginica
#> # ℹ 40 more rows
#> 
#> $outcomes
#> # A tibble: 50 × 1
#>    `log(Sepal.Width)`
#>                 <dbl>
#>  1              1.19 
#>  2              0.993
#>  3              1.10 
#>  4              1.06 
#>  5              1.10 
#>  6              1.10 
#>  7              0.916
#>  8              1.06 
#>  9              0.916
#> 10              1.28 
#> # ℹ 40 more rows
…
