…
- `...`: Not allowed because the default method of
  [`model.matrix()`](https://rdrr.io/r/stats/model.matrix.html) does not
  use it, and the `lm` method uses it to pass potential offsets and
  weights through, which are handled differently in hardhat.

## Examples

``` r
# ---------------------------------------------------------------------------
# Example usage

framed <- model_frame(Sepal.Width ~ Species, iris)

model_matrix(framed$terms, framed$data)
#> # A tibble: 150 × 3
#>    `(Intercept)` Speciesversicolor Speciesvirginica
#>            <dbl>             <dbl>            <dbl>
#>  1             1                 0                0
#>  2             1                 0                0
#>  3             1                 0                0
#>  4             1                 0                0
#>  5             1                 0                0
#>  6             1                 0                0
#>  7             1                 0                0
#>  8             1                 0                0
#>  9             1                 0                0
#> 10             1                 0                0
#> # ℹ 140 more rows

# ---------------------------------------------------------------------------
# Missing values never result in dropped rows

iris2 <- iris
iris2$Species[1] <- NA

framed2 <- model_frame(Sepal.Width ~ Species, iris2)

model_matrix(framed2$terms, framed2$data)
#> # A tibble: 150 × 3
#>    `(Intercept)` Speciesversicolor Speciesvirginica
#>            <dbl>             <dbl>            <dbl>
#>  1             1                NA               NA
#>  2             1                 0                0
#>  3             1                 0                0
#>  4             1                 0                0
#>  5             1                 0                0
#>  6             1                 0                0
#>  7             1                 0                0
#>  8             1                 0                0
#>  9             1                 0                0
#> 10             1                 0                0
#> # ℹ 140 more rows
…
