…
- `extras`: Either `NULL` if the blueprint returns no extra information,
  or a named list containing the extra information.

## Examples

``` r
# See the method specific documentation linked in Description
# for the details of each blueprint, and more examples.

# XY
mold(iris["Sepal.Width"], iris$Species)
#> $predictors
#> # A tibble: 150 × 1
#>    Sepal.Width
#>          <dbl>
#>  1         3.5
#>  2         3  
#>  3         3.2
#>  4         3.1
#>  5         3.6
#>  6         3.9
#>  7         3.4
#>  8         3.4
#>  9         2.9
#> 10         3.1
#> # ℹ 140 more rows
#> 
#> $outcomes
#> # A tibble: 150 × 1
#>    .outcome
#>    <fct>   
#>  1 setosa  
#>  2 setosa  
#>  3 setosa  
#>  4 setosa  
#>  5 setosa  
#>  6 setosa  
#>  7 setosa  
#>  8 setosa  
#>  9 setosa  
#> 10 setosa  
#> # ℹ 140 more rows
…
# Formula
mold(Species ~ Sepal.Width, iris)
#> $predictors
#> # A tibble: 150 × 1
#>    Sepal.Width
#>          <dbl>
#>  1         3.5
#>  2         3  
#>  3         3.2
#>  4         3.1
#>  5         3.6
#>  6         3.9
#>  7         3.4
#>  8         3.4
#>  9         2.9
#> 10         3.1
#> # ℹ 140 more rows
#> 
#> $outcomes
#> # A tibble: 150 × 1
#>    Species
#>    <fct>  
#>  1 setosa 
#>  2 setosa 
#>  3 setosa 
#>  4 setosa 
#>  5 setosa 
#>  6 setosa 
#>  7 setosa 
#>  8 setosa 
#>  9 setosa 
#> 10 setosa 
#> # ℹ 140 more rows
…
# Recipe
library(recipes)
mold(recipe(Species ~ Sepal.Width, iris), iris)
#> $predictors
#> # A tibble: 150 × 1
#>    Sepal.Width
#>          <dbl>
#>  1         3.5
#>  2         3  
#>  3         3.2
#>  4         3.1
#>  5         3.6
#>  6         3.9
#>  7         3.4
#>  8         3.4
#>  9         2.9
#> 10         3.1
#> # ℹ 140 more rows
#> 
#> $outcomes
#> # A tibble: 150 × 1
#>    Species
#>    <fct>  
#>  1 setosa 
#>  2 setosa 
#>  3 setosa 
#>  4 setosa 
#>  5 setosa 
#>  6 setosa 
#>  7 setosa 
#>  8 setosa 
#>  9 setosa 
#> 10 setosa 
#> # ℹ 140 more rows
…
