…
# ---------------------------------------------------------------------------
# shrink() / scream()

# Pass the test data, along with a prototype, to
# shrink() to extract the prototype columns
test_shrunk <- shrink(test, ptype_pred)

# Now pass that to scream() to perform validation checks
# If no warnings / errors are thrown, the checks were
# successful!
scream(test_shrunk, ptype_pred)
#> # A tibble: 50 × 1
#>    Species  
#>    <fct>    
#>  1 virginica
#>  2 virginica
#>  3 virginica
#>  4 virginica
#>  5 virginica
#>  6 virginica
#>  7 virginica
#>  8 virginica
#>  9 virginica
#> 10 virginica
#> # ℹ 40 more rows

# ---------------------------------------------------------------------------
# Outcomes

# To also extract the outcomes, use the outcome prototype
test_outcome <- shrink(test, ptype_out)
scream(test_outcome, ptype_out)
#> # A tibble: 50 × 1
#>    Sepal.Width
#>          <dbl>
#>  1         3.3
#>  2         2.7
#>  3         3  
#>  4         2.9
#>  5         3  
#>  6         3  
#>  7         2.5
#>  8         2.9
#>  9         2.5
#> 10         3.6
#> # ℹ 40 more rows

# ---------------------------------------------------------------------------
# Casting

# scream() uses vctrs::vec_cast() to intelligently convert
# new data to the prototype automatically. This means
# it can automatically perform certain conversions, like
# coercing character columns to factors.
test2 <- test
test2$Species <- as.character(test2$Species)

test2_shrunk <- shrink(test2, ptype_pred)
scream(test2_shrunk, ptype_pred)
#> # A tibble: 50 × 1
#>    Species  
#>    <fct>    
#>  1 virginica
#>  2 virginica
#>  3 virginica
#>  4 virginica
#>  5 virginica
#>  6 virginica
#>  7 virginica
#>  8 virginica
#>  9 virginica
#> 10 virginica
#> # ℹ 40 more rows
…
