…
# ---------------------------------------------------------------------------
# Special error when `.outcome` is missing

train <- iris[1:100, ]
test <- iris[101:150, ]

train_x <- subset(train, select = -Species)
train_y <- train$Species

# Here, y is a vector
processed <- mold(train_x, train_y)

# So the default column name is `".outcome"`
processed$outcomes
#> # A tibble: 100 × 1
#>    .outcome
#>    <fct>   
#>  1 setosa  
#>  2 setosa  
#>  3 setosa  
#>  4 setosa  
#>  5 setosa  
#>  6 setosa  
#>  7 setosa  
#>  8 setosa  
#>  9 setosa  
#> 10 setosa  
#> # ℹ 90 more rows

# It doesn't affect forge() normally
forge(test, processed$blueprint)
#> $predictors
#> # A tibble: 50 × 4
#>    Sepal.Length Sepal.Width Petal.Length Petal.Width
#>           <dbl>       <dbl>        <dbl>       <dbl>
#>  1          6.3         3.3          6           2.5
#>  2          5.8         2.7          5.1         1.9
#>  3          7.1         3            5.9         2.1
#>  4          6.3         2.9          5.6         1.8
#>  5          6.5         3            5.8         2.2
#>  6          7.6         3            6.6         2.1
#>  7          4.9         2.5          4.5         1.7
#>  8          7.3         2.9          6.3         1.8
#>  9          6.7         2.5          5.8         1.8
#> 10          7.2         3.6          6.1         2.5
#> # ℹ 40 more rows
…
# To get this to work, just create an .outcome column in new_data
test$.outcome <- test$Species

forge(test, processed$blueprint, outcomes = TRUE)
#> $predictors
#> # A tibble: 50 × 4
#>    Sepal.Length Sepal.Width Petal.Length Petal.Width
#>           <dbl>       <dbl>        <dbl>       <dbl>
#>  1          6.3         3.3          6           2.5
#>  2          5.8         2.7          5.1         1.9
#>  3          7.1         3            5.9         2.1
#>  4          6.3         2.9          5.6         1.8
#>  5          6.5         3            5.8         2.2
#>  6          7.6         3            6.6         2.1
#>  7          4.9         2.5          4.5         1.7
#>  8          7.3         2.9          6.3         1.8
#>  9          6.7         2.5          5.8         1.8
#> 10          7.2         3.6          6.1         2.5
#> # ℹ 40 more rows
#> 
#> $outcomes
#> # A tibble: 50 × 1
#>    .outcome 
#>    <fct>    
#>  1 virginica
#>  2 virginica
#>  3 virginica
#>  4 virginica
#>  5 virginica
#>  6 virginica
#>  7 virginica
#>  8 virginica
#>  9 virginica
#> 10 virginica
#> # ℹ 40 more rows
…
