Forging data for predictions • hardhat
…
formula_eng
#> Formula Engine: 
#>  
#> # Predictors: 2 
#>   # Outcomes: 1 
#>    Intercept: FALSE 
#>   Indicators: FALSE

A formula engine is returned here, which knows about the predictors and outcomes that were used at training time, and knows that you don’t want to expand Species into dummy variables by setting indicators = FALSE.

When it comes time to make predictions, the first thing that you should do inside your predict() method is pass the user supplied data to forge(), along with the engine that was attached to the model object. This will preprocess the new_data using the same steps specified when the model was being trained. Since we can’t recreate that full fit+predict workflow in this simple example, let’s just use iris_test as our new data, and the engine we created above.

forge(iris_test, formula_eng)
#> $predictors
#> # A tibble: 50 x 2
#>    Petal.Width Species  
#>          <dbl> <fct>    
#>  1         2.5 virginica
#>  2         1.9 virginica
#>  3         2.1 virginica
#>  4         1.8 virginica
#>  5         2.2 virginica
#>  6         2.1 virginica
#>  7         1.7 virginica
#>  8         1.8 virginica
#>  9         1.8 virginica
#> 10         2.5 virginica
#> # … with 40 more rows
…
predictors holds a tibble of the predictors.

outcomes is returned as NULL by default, because most predict() methods assume you only have access to the new predictors. Alternatively, this might contain a tibble of the new outcomes.

extras varies per engine, but is a catch-all slot to hold the same kind of extra objects that were returned by the engine when mold() was called.

Outcomes

Generally when generating predictions you only need to know about the new predictors. However, when performing resampling you will need to have the processed outcomes as well so you can compute cross validated performance statistics and decide between multiple models, or choose between hyperparameters.

You can easily request the outcomes as well with outcomes = TRUE. Just like with the predictors, these get processed using the same steps as done to the outcomes at fit time.

forge(iris_test, formula_eng, outcomes = TRUE)
#> $predictors
#> # A tibble: 50 x 2
#>    Petal.Width Species  
#>          <dbl> <fct>    
#>  1         2.5 virginica
#>  2         1.9 virginica
#>  3         2.1 virginica
#>  4         1.8 virginica
#>  5         2.2 virginica
#>  6         2.1 virginica
#>  7         1.7 virginica
#>  8         1.8 virginica
#>  9         1.8 virginica
#> 10         2.5 virginica
#> # … with 40 more rows
#> 
#> $outcomes
#> # A tibble: 50 x 1
#>    `log(Sepal.Length)`
#>                  <dbl>
#>  1                1.84
#>  2                1.76
#>  3                1.96
#>  4                1.84
#>  5                1.87
#>  6                2.03
#>  7                1.59
#>  8                1.99
#>  9                1.90
#> 10                1.97
#> # … with 40 more rows
…
An error is thrown, indicating that a double can’t be cast to a factor.

Lossless conversion

The error message above suggests that in some cases you can automatically cast from one type to another, and in fact that is true! Rather than being a double, what if Species was just a character?

test_species_character <- iris_test
test_species_character$Species <- as.character(test_species_character$Species)

forged_char <- forge(test_species_character, formula_eng)

forged_char$predictors
#> # A tibble: 50 x 2
#>    Petal.Width Species  
#>          <dbl> <fct>    
#>  1         2.5 virginica
#>  2         1.9 virginica
#>  3         2.1 virginica
#>  4         1.8 virginica
#>  5         2.2 virginica
#>  6         2.1 virginica
#>  7         1.7 virginica
#>  8         1.8 virginica
#>  9         1.8 virginica
#> 10         2.5 virginica
#> # … with 40 more rows
…
Interesting, so in this case we can actually convert to a factor, and the class and even the levels are all restored. The key here is that this was a lossless conversion. We lost no information when converting the character Species to a factor because the unique character values were a subset of the original levels.

An example of a conversion that would be lossy is if the character Species column had a value that was not a level in the training data.

test_species_lossy <- iris_test
test_species_lossy$Species <- as.character(test_species_lossy$Species)
test_species_lossy$Species[2] <- "im new!"

forged_lossy <- forge(test_species_lossy, formula_eng)
#> Warning: Lossy cast from <character> to <factor<12d60>>.
#> Locations: 2

forged_lossy$predictors
#> # A tibble: 50 x 2
#>    Petal.Width Species  
#>          <dbl> <fct>    
#>  1         2.5 virginica
#>  2         1.9 <NA>     
#>  3         2.1 virginica
#>  4         1.8 virginica
#>  5         2.2 virginica
#>  6         2.1 virginica
#>  7         1.7 virginica
#>  8         1.8 virginica
#>  9         1.8 virginica
#> 10         2.5 virginica
#> # … with 40 more rows
…
recipe_eng <- iris_recipe$engine

recipe_eng
#> Recipe Engine: 
#>  
#> # Predictors: 2 
#>   # Outcomes: 1 
#>    Intercept: FALSE

iris_test_no_outcome <- subset(iris_test, select = -Sepal.Width)

forge(iris_test_no_outcome, recipe_eng)
#> $predictors
#> # A tibble: 50 x 3
#>    Sepal.Length Species_versicolor Species_virginica
#>           <dbl>              <dbl>             <dbl>
#>  1          6.3                  0                 1
#>  2          5.8                  0                 1
#>  3          7.1                  0                 1
#>  4          6.3                  0                 1
#>  5          6.5                  0                 1
#>  6          7.6                  0                 1
#>  7          4.9                  0                 1
#>  8          7.3                  0                 1
#>  9          6.7                  0                 1
#> 10          7.2                  0                 1
#> # … with 40 more rows
…
forge(iris_test_no_outcome, recipe_eng, outcomes = TRUE)
#> Error: The following required columns are missing: 'Sepal.Width'.

rec2 <- recipe(Sepal.Width ~ Sepal.Length + Species, iris_train) %>%
  step_dummy(Species) %>%
  step_log(Sepal.Width)

iris_recipe2 <- mold(rec2, iris_train)

recipe_eng_log_outcome <- iris_recipe2$engine

# this works? this is a recipe bug it should error
forge(iris_test_no_outcome, recipe_eng_log_outcome)
#> $predictors
#> # A tibble: 50 x 3
#>    Sepal.Length Species_versicolor Species_virginica
#>           <dbl>              <dbl>             <dbl>
#>  1          6.3                  0                 1
#>  2          5.8                  0                 1
#>  3          7.1                  0                 1
#>  4          6.3                  0                 1
#>  5          6.5                  0                 1
#>  6          7.6                  0                 1
#>  7          4.9                  0                 1
#>  8          7.3                  0                 1
#>  9          6.7                  0                 1
#> 10          7.2                  0                 1
#> # … with 40 more rows
…
forge(iris_test_no_outcome, recipe_eng_log_outcome, outcomes = TRUE)
#> Error: The following required columns are missing: 'Sepal.Width'.

rec3 <- recipe(Sepal.Width ~ Sepal.Length + Species, iris_train) %>%
  step_dummy(Species) %>%
  step_log(Sepal.Width, skip = TRUE)

iris_recipe3 <- mold(rec3, iris_train)

recipe_eng_skip_outcome <- iris_recipe3$engine

forge(iris_test_no_outcome, recipe_eng_skip_outcome)
#> $predictors
#> # A tibble: 50 x 3
#>    Sepal.Length Species_versicolor Species_virginica
#>           <dbl>              <dbl>             <dbl>
#>  1          6.3                  0                 1
#>  2          5.8                  0                 1
#>  3          7.1                  0                 1
#>  4          6.3                  0                 1
#>  5          6.5                  0                 1
#>  6          7.6                  0                 1
#>  7          4.9                  0                 1
#>  8          7.3                  0                 1
#>  9          6.7                  0                 1
#> 10          7.2                  0                 1
#> # … with 40 more rows
…
