Creating Modeling Packages With hardhat • hardhat
…
  out <- spruce_response(.pred)
  
  out
}

To test it, we will have to do some of the work that will be done automatically by the higher level prediction helpers.

model <- simple_lm(Sepal.Width ~ Sepal.Length + Species, iris)

predictors <- forge(iris, model$engine)$predictors
predictors <- as.matrix(predictors)

predict_simple_lm_response(model, predictors)
#> # A tibble: 150 x 1
#>    .pred
#>    <dbl>
#>  1  3.46
#>  2  3.39
#>  3  3.32
#>  4  3.29
#>  5  3.43
#>  6  3.57
#>  7  3.29
#>  8  3.43
#>  9  3.22
#> 10  3.39
#> # … with 140 more rows
…
  switch(
    type,
    response = predict_simple_lm_response(object, predictors)
  )
}

Let’s test:

model <- simple_lm(Sepal.Width ~ Sepal.Length + Species, iris)

# Pass in the data frame
predictors <- forge(iris, model$engine)$predictors

predict_simple_lm_wrapper("response", model, predictors)
#> # A tibble: 150 x 1
#>    .pred
#>    <dbl>
#>  1  3.46
#>  2  3.39
#>  3  3.32
#>  4  3.29
#>  5  3.43
#>  6  3.57
#>  7  3.29
#>  8  3.43
#>  9  3.22
#> 10  3.39
#> # … with 140 more rows
…
  out <- predict_simple_lm_wrapper(type, object, processed$predictors)
  
  validate_prediction_size(out, new_data)
  
  out
}

Final Testing

Finally, we can test out our top level modeling function along with its corresponding predict() method.

model <- simple_lm(Sepal.Width ~ log(Sepal.Length) + Species, iris)

predict(model, iris)
#> # A tibble: 150 x 1
#>    .pred
#>    <dbl>
#>  1  3.47
#>  2  3.39
#>  3  3.29
#>  4  3.25
#>  5  3.43
#>  6  3.60
#>  7  3.25
#>  8  3.43
#>  9  3.15
#> 10  3.39
#> # … with 140 more rows
…
# new_data isn't a data frame
predict(model, iris$Species)
#> Error: The class of `new_data`, 'factor', is not recognized.

# missing a required column
predict(model, subset(iris, select = -Sepal.Length))
#> Error: The following required columns are missing: 'Sepal.Length'.

# 'Species' is a character, but can be losslessy converted to a factor
# so that happens for you automatically and silently.
iris_chr_species <- transform(iris, Species = as.character(Species))

predict(model, iris_chr_species)
#> # A tibble: 150 x 1
#>    .pred
#>    <dbl>
#>  1  3.47
#>  2  3.39
#>  3  3.29
#>  4  3.25
#>  5  3.43
#>  6  3.60
#>  7  3.25
#>  8  3.43
#>  9  3.15
#> 10  3.39
#> # … with 140 more rows

# 'Species' is a character, AND has an extra level. It is removed with a warning.
# but you still get a factor with the correct levels
iris_chr_bad_species <- iris_chr_species
iris_chr_bad_species$Species[1] <- "new_level"

predict(model, iris_chr_bad_species)
#> Warning: Lossy cast from <character> to <factor<12d60>>.
#> Locations: 1
#> # A tibble: 150 x 1
#>    .pred
#>    <dbl>
#>  1 NA   
#>  2  3.39
#>  3  3.29
#>  4  3.25
#>  5  3.43
#>  6  3.60
#>  7  3.25
#>  8  3.43
#>  9  3.15
#> 10  3.39
#> # … with 140 more rows
…
